---
http_interactions:
- request:
    method: get
    uri: http://content.guardianapis.com/search?api-key=b3c90be6-d0b9-4a5f-af65-4736cc73ef40&order-by=newest&section=world
    body:
      encoding: US-ASCII
      string: ''
    headers:
      Accept-Encoding:
      - gzip;q=1.0,deflate;q=0.6,identity;q=0.3
      Accept:
      - "*/*"
      User-Agent:
      - Ruby
  response:
    status:
      code: 200
      message: OK
    headers:
      Access-Control-Allow-Credentials:
      - 'true'
      Access-Control-Allow-Origin:
      - "*"
      Cache-Control:
      - max-age=0
      Content-Type:
      - application/json; charset=UTF-8
      Date:
      - Mon, 22 Aug 2016 23:18:05 GMT
      Server:
      - spray-can/1.3.3
      Surrogate-Control:
      - max-age=1
      Via:
      - kong/0.7.0
      X-Kong-Proxy-Latency:
      - '30'
      X-Kong-Upstream-Latency:
      - '60'
      X-Ratelimit-Limit-Day:
      - '5000'
      X-Ratelimit-Limit-Minute:
      - '720'
      X-Ratelimit-Remaining-Day:
      - '4861'
      X-Ratelimit-Remaining-Minute:
      - '715'
      Content-Length:
      - '5442'
      Connection:
      - keep-alive
    body:
      encoding: UTF-8
      string: '{"response":{"status":"ok","userTier":"developer","total":166209,"startIndex":1,"pageSize":10,"currentPage":1,"pages":16621,"orderBy":"newest","results":[{"id":"world/2016/aug/22/indigenous-canadians-children-sixties-scoop-court","type":"article","sectionId":"world","sectionName":"World
        news","webPublicationDate":"2016-08-22T21:21:02Z","webTitle":"Indigenous Canadians
        taken from homes as children get day in court","webUrl":"https://www.theguardian.com/world/2016/aug/22/indigenous-canadians-children-sixties-scoop-court","apiUrl":"https://content.guardianapis.com/world/2016/aug/22/indigenous-canadians-children-sixties-scoop-court","isHosted":false},{"id":"world/2016/aug/22/finland-us-russia-military-security","type":"article","sectionId":"world","sectionName":"World
        news","webPublicationDate":"2016-08-22T19:21:37Z","webTitle":"Finland says
        it is nearing security deal with US amid concerns over Russia","webUrl":"https://www.theguardian.com/world/2016/aug/22/finland-us-russia-military-security","apiUrl":"https://content.guardianapis.com/world/2016/aug/22/finland-us-russia-military-security","isHosted":false},{"id":"world/2016/aug/22/new-zealand-the-tonic-for-brits-seeking-to-escape-brexit-blues","type":"article","sectionId":"world","sectionName":"World
        news","webPublicationDate":"2016-08-22T17:48:42Z","webTitle":"Like the UK
        but better? Interest in New Zealand alternative soars after Brexit vote","webUrl":"https://www.theguardian.com/world/2016/aug/22/new-zealand-the-tonic-for-brits-seeking-to-escape-brexit-blues","apiUrl":"https://content.guardianapis.com/world/2016/aug/22/new-zealand-the-tonic-for-brits-seeking-to-escape-brexit-blues","isHosted":false},{"id":"world/2016/aug/22/france-isolation-units-islamic-extremist-prisoners-uk-paris-attacks","type":"article","sectionId":"world","sectionName":"World
        news","webPublicationDate":"2016-08-22T16:28:05Z","webTitle":"France began
        isolating Islamic extremists in jails after Paris attacks","webUrl":"https://www.theguardian.com/world/2016/aug/22/france-isolation-units-islamic-extremist-prisoners-uk-paris-attacks","apiUrl":"https://content.guardianapis.com/world/2016/aug/22/france-isolation-units-islamic-extremist-prisoners-uk-paris-attacks","isHosted":false},{"id":"world/2016/aug/22/what-is-it-really-like-to-live-in-new-zealand","type":"article","sectionId":"world","sectionName":"World
        news","webPublicationDate":"2016-08-22T15:34:26Z","webTitle":"What is it really
        like to live in New Zealand?","webUrl":"https://www.theguardian.com/world/2016/aug/22/what-is-it-really-like-to-live-in-new-zealand","apiUrl":"https://content.guardianapis.com/world/2016/aug/22/what-is-it-really-like-to-live-in-new-zealand","isHosted":false},{"id":"world/2016/aug/21/ventotene-summit-france-italy-germany-eu-brexit-vote","type":"article","sectionId":"world","sectionName":"World
        news","webPublicationDate":"2016-08-22T14:29:55Z","webTitle":"Ventotene summit
        to chart roadmap for EU''s response to Brexit vote","webUrl":"https://www.theguardian.com/world/2016/aug/21/ventotene-summit-france-italy-germany-eu-brexit-vote","apiUrl":"https://content.guardianapis.com/world/2016/aug/21/ventotene-summit-france-italy-germany-eu-brexit-vote","isHosted":false},{"id":"world/2016/aug/22/briton-killed-defusing-bomb-iraq-ramadi","type":"article","sectionId":"world","sectionName":"World
        news","webPublicationDate":"2016-08-22T13:19:44Z","webTitle":"Briton is killed
        defusing bomb in Iraqi city of Ramadi","webUrl":"https://www.theguardian.com/world/2016/aug/22/briton-killed-defusing-bomb-iraq-ramadi","apiUrl":"https://content.guardianapis.com/world/2016/aug/22/briton-killed-defusing-bomb-iraq-ramadi","isHosted":false},{"id":"world/2016/aug/22/ethiopian-olympic-medallist-feyisa-lilesa-seeks-asylum-after-marathon-protest-oromo-rio","type":"article","sectionId":"world","sectionName":"World
        news","webPublicationDate":"2016-08-22T13:16:27Z","webTitle":"Ethiopian Olympic
        medallist seeks asylum after marathon protest","webUrl":"https://www.theguardian.com/world/2016/aug/22/ethiopian-olympic-medallist-feyisa-lilesa-seeks-asylum-after-marathon-protest-oromo-rio","apiUrl":"https://content.guardianapis.com/world/2016/aug/22/ethiopian-olympic-medallist-feyisa-lilesa-seeks-asylum-after-marathon-protest-oromo-rio","isHosted":false},{"id":"world/2016/aug/22/islamic-extremist-pleads-guilty-at-icc-to-timbuktu-cultural-destruction","type":"article","sectionId":"world","sectionName":"World
        news","webPublicationDate":"2016-08-22T12:32:51Z","webTitle":"''I am sorry'':
        Islamist apologises for destroying Timbuktu mausoleums","webUrl":"https://www.theguardian.com/world/2016/aug/22/islamic-extremist-pleads-guilty-at-icc-to-timbuktu-cultural-destruction","apiUrl":"https://content.guardianapis.com/world/2016/aug/22/islamic-extremist-pleads-guilty-at-icc-to-timbuktu-cultural-destruction","isHosted":false},{"id":"world/2016/aug/22/why-do-they-target-us-yemeni-civilians-pay-the-price-of-escalating-crisis","type":"article","sectionId":"world","sectionName":"World
        news","webPublicationDate":"2016-08-22T12:04:14Z","webTitle":"''Why do they
        target us?'' Yemeni civilians pay the price of escalating crisis","webUrl":"https://www.theguardian.com/world/2016/aug/22/why-do-they-target-us-yemeni-civilians-pay-the-price-of-escalating-crisis","apiUrl":"https://content.guardianapis.com/world/2016/aug/22/why-do-they-target-us-yemeni-civilians-pay-the-price-of-escalating-crisis","isHosted":false}]}}'
    http_version: 
  recorded_at: Mon, 22 Aug 2016 23:18:10 GMT
recorded_with: VCR 3.0.3
